module alexandre/crawler

go 1.20

require (
	github.com/PuerkitoBio/goquery v1.8.1
	github.com/davecgh/go-spew v1.1.1
	github.com/gorilla/mux v1.8.0
)

require (
	github.com/andybalholm/cascadia v1.3.1 // indirect
	golang.org/x/net v0.7.0 // indirect
)
